{
    "project": {
        "name": "ecsjs",
        "description": "An entity component system library for JavaScript",
        "version": "1.0.0-alpha.1",
        "url": "https://github.com/ecsjs/ecs.git"
    },
    "files": {
        "src\\core\\entity-map.js": {
            "name": "src\\core\\entity-map.js",
            "modules": {},
            "classes": {
                "EntityMap": 1
            },
            "fors": {},
            "namespaces": {}
        },
        "src\\core\\entity.js": {
            "name": "src\\core\\entity.js",
            "modules": {},
            "classes": {
                "Entity": 1
            },
            "fors": {},
            "namespaces": {}
        },
        "src\\core\\key-map.js": {
            "name": "src\\core\\key-map.js",
            "modules": {},
            "classes": {
                "KeyMap": 1
            },
            "fors": {},
            "namespaces": {}
        },
        "src\\core\\node.js": {
            "name": "src\\core\\node.js",
            "modules": {},
            "classes": {
                "Node": 1
            },
            "fors": {},
            "namespaces": {}
        },
        "src\\ecs.js": {
            "name": "src\\ecs.js",
            "modules": {
                "ecsjs": 1
            },
            "classes": {},
            "fors": {},
            "namespaces": {}
        }
    },
    "modules": {
        "ecsjs": {
            "name": "ecsjs",
            "submodules": {},
            "elements": {},
            "classes": {
                "EntityMap": 1,
                "Entity": 1,
                "KeyMap": 1,
                "Node": 1
            },
            "fors": {},
            "namespaces": {},
            "tag": "main",
            "file": "src\\core\\node.js",
            "line": 26,
            "description": "### An entity component system library for JavaScript",
            "itemtype": "main"
        }
    },
    "classes": {
        "EntityMap": {
            "name": "EntityMap",
            "shortname": "EntityMap",
            "classitems": [],
            "plugins": [],
            "extensions": [],
            "plugin_for": [],
            "extension_for": [],
            "module": "ecsjs",
            "namespace": "",
            "file": "src\\core\\entity-map.js",
            "line": 26,
            "description": "Class for storing entities and their relationships"
        },
        "Entity": {
            "name": "Entity",
            "shortname": "Entity",
            "classitems": [],
            "plugins": [],
            "extensions": [],
            "plugin_for": [],
            "extension_for": [],
            "module": "ecsjs",
            "namespace": "",
            "file": "src\\core\\entity.js",
            "line": 26,
            "description": "Class for storing basic data\n\n```javascript\n// define a component\nclass MyComponent extends Entity { }\n\n// register the MyComponent entity map with ecs\necs.register(MyComponent)\n\n// create instances and store them in the MyComponent entity map\nlet instance = ecs.set(new MyComponent())\n```"
        },
        "KeyMap": {
            "name": "KeyMap",
            "shortname": "KeyMap",
            "classitems": [],
            "plugins": [],
            "extensions": [],
            "plugin_for": [],
            "extension_for": [],
            "module": "ecsjs",
            "namespace": "",
            "file": "src\\core\\key-map.js",
            "line": 19,
            "description": "Class for storing keys and values",
            "extends": "{Map}"
        },
        "Node": {
            "name": "Node",
            "shortname": "Node",
            "classitems": [],
            "plugins": [],
            "extensions": [],
            "plugin_for": [],
            "extension_for": [],
            "module": "ecsjs",
            "namespace": "",
            "file": "src\\core\\node.js",
            "line": 26,
            "description": "Class for storing data and relationships\n\n```javascript\n// define a node\nclass MyNode extends Node { }\n\n// register the MyNode entity map with ecs\necs.register(MyNode)\n\n// create instances and store them in the MyNode entity map\nlet instance = ecs.set(new MyNode())\n\n// connect other entities\ninstance.connect(\"position\", ecs.set(new PositionComponent(x, y)))\n\n// get connected entities\nlet p = instance.get(\"position\")\n```",
            "extends": "{Entity}"
        }
    },
    "elements": {},
    "classitems": [
        {
            "file": "src\\core\\entity-map.js",
            "line": 47,
            "description": "Registers an entity type and allocates a KeyMap for storing it's data\nEach entity is stored in the map using a uniqueid",
            "itemtype": "method",
            "name": "register",
            "chainable": 1,
            "params": [
                {
                    "name": "entityType",
                    "description": "The entity type to register"
                }
            ],
            "return": {
                "description": "Chains the current instance of {EntityMap}",
                "type": "EntityMap"
            },
            "example": [
                "\n\n```javascript\n  class MyComponent extends Entity {\n    constructor(x) {\n      super()\n      this.x = x;\n    }\n  }\n\n  ecs.register(MyComponent);\n```"
            ],
            "class": "EntityMap",
            "module": "ecsjs"
        },
        {
            "file": "src\\core\\entity-map.js",
            "line": 81,
            "description": "Retrieves an entity map by it's registered type",
            "itemtype": "method",
            "name": "getMap",
            "params": [
                {
                    "name": "entityType",
                    "description": "The type used to register the entity"
                }
            ],
            "return": {
                "description": "A map containing all entity data for the entity class",
                "type": "KeyMap"
            },
            "class": "EntityMap",
            "module": "ecsjs"
        },
        {
            "file": "src\\core\\entity-map.js",
            "line": 92,
            "description": "Retrieves an entity from its registered entity map",
            "itemtype": "method",
            "name": "get",
            "params": [
                {
                    "name": "entityType",
                    "description": ""
                },
                {
                    "name": "entityId",
                    "description": ""
                }
            ],
            "return": {
                "description": "",
                "type": "Entity"
            },
            "example": [
                "\n\n```javascript\n  // get an entity\n  let positionData = ecs.get(Components.PositionComponent, entityId);\n```"
            ],
            "class": "EntityMap",
            "module": "ecsjs"
        },
        {
            "file": "src\\core\\entity-map.js",
            "line": 114,
            "description": "Retrieves an entity from its registered entity map",
            "itemtype": "method",
            "name": "getByKey",
            "params": [
                {
                    "name": "entityKey",
                    "description": ""
                },
                {
                    "name": "entityId",
                    "description": ""
                }
            ],
            "return": {
                "description": "",
                "type": "Entity"
            },
            "example": [
                "\n\n```javascript\n  // get an entity\n  let positionData = ecs.getByKey(\"PositionComponent\", entityId);\n```"
            ],
            "class": "EntityMap",
            "module": "ecsjs"
        },
        {
            "file": "src\\core\\entity-map.js",
            "line": 136,
            "description": "Checks if the entity exists in it's registed entity map\nThe entity type must be registered before calling this method",
            "itemtype": "method",
            "name": "hasEntity",
            "params": [
                {
                    "name": "entityId",
                    "description": "The entity key"
                },
                {
                    "name": "entityType",
                    "description": "The type used to register the entity"
                }
            ],
            "return": {
                "description": "",
                "type": "Boolean"
            },
            "class": "EntityMap",
            "module": "ecsjs"
        },
        {
            "file": "src\\core\\entity-map.js",
            "line": 156,
            "description": "Adds or updates an entity to it's registered entity map",
            "itemtype": "method",
            "name": "setEntity",
            "params": [
                {
                    "name": "entityId",
                    "description": ""
                },
                {
                    "name": "entityType",
                    "description": ""
                },
                {
                    "name": "entityInstance",
                    "description": ""
                }
            ],
            "return": {
                "description": "Returns the entity instance",
                "type": "EntityMap"
            },
            "example": [
                "\n\n```javascript\n  // add/update a entity to an entity\n  let playerPos = new Components.PositionComponent(0, 0);\n  ecs.set(Components.PositionComponent, entityId, playerPos);\n```"
            ],
            "class": "EntityMap",
            "module": "ecsjs"
        },
        {
            "file": "src\\core\\entity-map.js",
            "line": 187,
            "description": "Adds or updates an entity to it's registered entity map",
            "itemtype": "method",
            "name": "set",
            "params": [
                {
                    "name": "entity",
                    "description": ""
                }
            ],
            "return": {
                "description": "Chains the current instance of {EntityMap}",
                "type": "EntityMap"
            },
            "example": [
                "\n\n```javascript\n  // add/update an entity\n  let playerPos = ecs.set(new Components.PositionComponent(0, 0));\n```"
            ],
            "class": "EntityMap",
            "module": "ecsjs"
        },
        {
            "file": "src\\core\\entity-map.js",
            "line": 204,
            "description": "Removes an entity from its registered entity map\nAlso removes any related entities that are connected to it (i.e. via a Node connect call)",
            "itemtype": "method",
            "name": "remove",
            "params": [
                {
                    "name": "entity",
                    "description": ""
                },
                {
                    "name": "depth",
                    "description": ""
                }
            ],
            "return": {
                "description": "true if successful, false if not",
                "type": "Boolean"
            },
            "example": [
                "\n\n```javascript\n  // remove an entity from its entity map\n  ecs.remove(entity);\n\n  // remove an entity and its child related entities\n  ecs.remove(entity, 1);\n```"
            ],
            "class": "EntityMap",
            "module": "ecsjs"
        },
        {
            "file": "src\\core\\entity-map.js",
            "line": 226,
            "description": "Removes an entity from its entity map.\nRemoves any related Node entities that are mapped to the entity",
            "itemtype": "method",
            "name": "removeEntity",
            "params": [
                {
                    "name": "entityType",
                    "description": ""
                },
                {
                    "name": "entityId",
                    "description": ""
                },
                {
                    "name": "depth",
                    "description": ""
                }
            ],
            "return": {
                "description": "true if successful, false if not",
                "type": "Boolean"
            },
            "example": [
                "\n\n```javascript\n  // remove an entity from its entity map\n  EntityMap.removeEntity(Components.PositionComponent, entityId);\n```"
            ],
            "class": "EntityMap",
            "module": "ecsjs"
        },
        {
            "file": "src\\core\\entity-map.js",
            "line": 246,
            "description": "Removes an entity from its entity map.\nRemoves any related Node entities that are mapped to the entity",
            "itemtype": "method",
            "name": "removeEntityByKey",
            "params": [
                {
                    "name": "entityKey",
                    "description": ""
                },
                {
                    "name": "entityId",
                    "description": ""
                },
                {
                    "name": "depth",
                    "description": ""
                }
            ],
            "return": {
                "description": "true if successful, false if not",
                "type": "Boolean"
            },
            "example": [
                "\n\n```javascript\n  // remove an entity from its entity map\n  EntityMap.removeEntity(\"PositionComponent\", entityId);\n```"
            ],
            "class": "EntityMap",
            "module": "ecsjs"
        },
        {
            "file": "src\\core\\entity-map.js",
            "line": 296,
            "itemtype": "method",
            "name": "clear",
            "chainable": 1,
            "return": {
                "description": "Chains the current instance of {EntityMap}",
                "type": "EntityMap"
            },
            "class": "EntityMap",
            "module": "ecsjs"
        },
        {
            "file": "src\\core\\entity-map.js",
            "line": 306,
            "description": "Prints all entity maps in a tabular format to the console",
            "itemtype": "method",
            "name": "printTable",
            "chainable": 1,
            "return": {
                "description": "Chains the current instance of {EntityMap}",
                "type": "EntityMap"
            },
            "class": "EntityMap",
            "module": "ecsjs"
        },
        {
            "file": "src\\core\\entity-map.js",
            "line": 318,
            "description": "Parse's the JSON and returns an EntityMap object",
            "itemtype": "method",
            "name": "parse",
            "static": 1,
            "params": [
                {
                    "name": "json",
                    "description": ""
                }
            ],
            "return": {
                "description": "EntityMap object",
                "type": "EntityMap"
            },
            "example": [
                "\n\n```javascript\n  // remove an entity from its entity map\n  const json = JSON.stringfy(ecs);\n  const restoredMap = EntityMap.parse(json);\n```"
            ],
            "class": "EntityMap",
            "module": "ecsjs"
        },
        {
            "file": "src\\core\\entity-map.js",
            "line": 366,
            "description": "Returns a cypher script starting from the root node entity",
            "itemtype": "method",
            "name": "toCypher",
            "static": 1,
            "params": [
                {
                    "name": "topNode",
                    "description": "Top most node you wish to start from"
                },
                {
                    "name": "depth",
                    "description": "How many levels to traverse"
                }
            ],
            "return": {
                "description": "A cypher script container all the nodes and edges constrained to the depth provided",
                "type": "String"
            },
            "class": "EntityMap",
            "module": "ecsjs"
        },
        {
            "file": "src\\core\\entity-map.js",
            "line": 406,
            "description": "Returns a schema object containing nodes and there related edges which can be used with yfiles-for-html",
            "itemtype": "method",
            "name": "toGraphMap",
            "static": 1,
            "params": [
                {
                    "name": "topNode",
                    "description": "The top most node you wish to start from"
                },
                {
                    "name": "depth",
                    "description": "How many levels to traverse"
                }
            ],
            "return": {
                "description": "A js object containing nodes and edges constrained to the depth provided",
                "type": "Object"
            },
            "class": "EntityMap",
            "module": "ecsjs"
        },
        {
            "file": "src\\core\\entity-map.js",
            "line": 437,
            "description": "A tracing method used for debugging.\nIntercepts all functions specified and logs each call to the console.",
            "itemtype": "method",
            "name": "createWithTracing",
            "static": 1,
            "params": [
                {
                    "name": "funcFilter",
                    "description": "A list of function names you want to intercept. If no function names are specified then will log all fucntions called",
                    "type": "Array"
                }
            ],
            "return": {
                "description": "A new entity map with tracing enabled",
                "type": "EntityMap"
            },
            "class": "EntityMap",
            "module": "ecsjs"
        },
        {
            "file": "src\\core\\entity.js",
            "line": 45,
            "description": "A system generated number that is used to keep each entity unique within their entity map",
            "itemtype": "property",
            "name": "uniqueId",
            "type": "Number",
            "class": "Entity",
            "module": "ecsjs"
        },
        {
            "file": "src\\core\\key-map.js",
            "line": 27,
            "itemtype": "method",
            "name": "firstKey",
            "return": {
                "description": "",
                "type": "Key"
            },
            "class": "KeyMap",
            "module": "ecsjs"
        },
        {
            "file": "src\\core\\key-map.js",
            "line": 40,
            "itemtype": "method",
            "name": "firstEntry",
            "return": {
                "description": "",
                "type": "[Key, Value]"
            },
            "class": "KeyMap",
            "module": "ecsjs"
        },
        {
            "file": "src\\core\\key-map.js",
            "line": 53,
            "itemtype": "method",
            "name": "firstValue",
            "return": {
                "description": "",
                "type": "Value"
            },
            "class": "KeyMap",
            "module": "ecsjs"
        },
        {
            "file": "src\\core\\key-map.js",
            "line": 70,
            "itemtype": "method",
            "name": "toTable",
            "return": {
                "description": "",
                "type": "Array"
            },
            "class": "KeyMap",
            "module": "ecsjs"
        },
        {
            "file": "src\\core\\key-map.js",
            "line": 91,
            "description": "Outputs keys and values in a tabular format to the console",
            "itemtype": "method",
            "name": "printTable",
            "return": {
                "description": "",
                "type": "Array"
            },
            "class": "KeyMap",
            "module": "ecsjs"
        },
        {
            "file": "src\\core\\node.js",
            "line": 61,
            "description": "Creates a relationship between the current node and the given entity",
            "itemtype": "method",
            "name": "connect",
            "chainable": 1,
            "params": [
                {
                    "name": "edgeLabel",
                    "description": "A string or an array<string> containing the key(s) that names the edges between the nodes"
                },
                {
                    "name": "entityInstance",
                    "description": "An entity thats associated with the relationship"
                }
            ],
            "return": {
                "description": "Chains the current node instance",
                "type": "Node"
            },
            "example": [
                "\n\n```javascript\n// create a node entity\nlet playerNode = ecs.set(new PlayerNode())\n\n// connect other entities\nplayerNode.connect(\"position\", ecs.set(new PositionComponent(x, y)))\n```"
            ],
            "class": "Node",
            "module": "ecsjs"
        },
        {
            "file": "src\\core\\node.js",
            "line": 106,
            "description": "Disconnects a related entity from the current node and removes it from the graph",
            "itemtype": "method",
            "name": "disconnect",
            "params": [
                {
                    "name": "edgeLabel",
                    "description": "The name of the edge that is to be removed from the graph"
                },
                {
                    "name": "depth",
                    "description": "How many nodes to recurse and remove from the entity map"
                }
            ],
            "return": {
                "description": "True if successfully removed connected entities",
                "type": "Boolean"
            },
            "example": [
                "\n\n```javascript\n// remove an entity\nlet playerNode = ecs.set(new PlayerNode())\n\n// disconnect the entity and remove it from the entity map\nplayerNode.disconnect(\"position\")\n```"
            ],
            "class": "Node",
            "module": "ecsjs"
        },
        {
            "file": "src\\core\\node.js",
            "line": 130,
            "description": "Get a related entity using its key",
            "itemtype": "method",
            "name": "get",
            "params": [
                {
                    "name": "edgeLabel",
                    "description": ""
                }
            ],
            "return": {
                "description": "An entity",
                "type": "Entity"
            },
            "example": [
                "\n\n```javascript\n// get an entity\nlet pos = playerNode.get(\"position\")\n```"
            ],
            "class": "Node",
            "module": "ecsjs"
        }
    ],
    "warnings": []
}